{
    "app-id": "org.gnome.font-viewer",
    "runtime": "org.gnome.Platform",
    "runtime-version": "master",
    "sdk": "org.gnome.Sdk",
    "command": "gnome-font-viewer",
    "finish-args": [
        "--device=dri",
        "--share=ipc",
        "--socket=x11",
        "--socket=wayland",
        "--talk-name=org.gtk.vfs", "--talk-name=org.gtk.vfs.*",
        "--talk-name=ca.desrt.conf", "--env=DCONF_USER_CONFIG_DIR=.config/dconf"
    ],
    "cleanup": [
        "/include",
        "/lib/pkgconfig", "/share/pkgconfig",
        "/share/aclocal",
        "/man", "/share/man", "/share/gtk-doc",
        "*.la", ".a",
        "/lib/girepository-1.0",
        "/share/gir-1.0",
        "/share/doc"
    ],
    "modules": [
	{
	    "name": "gnome-desktop",
	    "buildsystem": "autotools",
	    "builddir": true,
	    "config-opts": [
		"--libdir=/app/lib"
	    ],
            "sources": [
                {
                    "type": "git",
                    "url": "https://git.gnome.org/browse/gnome-desktop"
                }
            ]
	},
	{
	    "name": "gnome-font-viewer",
	    "buildsystem": "meson",
	    "builddir": true,
            "sources": [
                {
                    "type": "git",
                    "url": "https://git.gnome.org/browse/gnome-font-viewer",
		    "branch": "wip/matthiasc/character-variations"
                }
            ]
	}
    ]
}
